{
	"spell": [
		{
			"name": "Create Magen",
			"source": "IDRotF",
			"page": 318,
			"level": 7,
			"school": "T",
			"time": [
				{
					"number": 1,
					"unit": "hour"
				}
			],
			"range": {
				"type": "point",
				"distance": {
					"type": "touch"
				}
			},
			"components": {
				"v": true,
				"s": true,
				"m": {
					"text": "a vial of quicksilver worth 500 gp and a life-sized human doll, both of which the spell consumes, and an intricate crystal rod worth at least 1,500 gp that is not consumed",
					"cost": 50000,
					"consume": true
				}
			},
			"duration": [
				{
					"type": "instant"
				}
			],
			"entries": [
				"施法时，你要将一小瓶流银放入一个真人大小、塞满灰烬或尘土的人偶胸口。然后将人偶缝合并滴上你的血。施法结束后，你用水晶棒敲击人偶，将其变成一个 {@filter magen|bestiary|search=magen|source=IDRotF} 穿着人偶所穿衣服的人。你可以在施法时选择魔偶的类型。请参阅 {@adventure appendix C|IDRotF|21} 了解不同种类的玛根及其统计数据。",
				"当(`Magen`)出现时，你的最大生命值会减少等于(`Magen`)的挑战等级的数值（最少减少 1 点）。只有 {@spell wish} 法术可以解除你的最大生命值减少。",
				"你用这个咒语创造的任何马根都会毫无疑义地服从你的命令。"
			],
			"areaTags": [
				"ST"
			]
		},
		{
			"name": "Frost Fingers",
			"source": "IDRotF",
			"page": 318,
			"level": 1,
			"school": "V",
			"time": [
				{
					"number": 1,
					"unit": "action"
				}
			],
			"range": {
				"type": "cone",
				"distance": {
					"type": "feet",
					"amount": 15
				}
			},
			"components": {
				"v": true,
				"s": true
			},
			"duration": [
				{
					"type": "instant"
				}
			],
			"entries": [
				"你伸出手指释放出冰冷的气息，在一个15英尺的锥形区域内。该区域内的每个生物必须进行一次体质豁免才能，未通过豁免则受到{@damage 2d8}的冰冷伤害，通过则只受一半伤害。",
				"寒冷会冻结该地区没有被佩戴或携带的非魔法液体。"
			],
			"entriesHigherLevel": [
				{
					"type": "entries",
					"name": "At Higher Levels",
					"entries": [
						"当你使用2级或更高级的法术位释放这个法术时，每超过1级的法术位等级，伤害提高 {@dice 1d8}。"
					]
				}
			],
			"damageInflict": [
				"cold"
			],
			"savingThrow": [
				"constitution"
			],
			"areaTags": [
				"N"
			]
		}
	]
}
